{
  "last_node_id": 132,
  "last_link_id": 52,
  "nodes": [
    {
      "id": 109,
      "type": "graphics/DOM",
      "pos": [
        490,
        508
      ],
      "size": {
        "0": 140,
        "1": 34
      },
      "flags": {
        "collapsed": false
      },
      "mode": 0,
      "inputs": [
        {
          "name": "update",
          "type": -1,
          "link": null
        },
        {
          "name": "html",
          "type": "string",
          "link": null
        }
      ],
      "outputs": [
        {
          "name": "out",
          "type": "object",
          "links": [
            38
          ]
        }
      ],
      "properties": {
        "tag": "div",
        "width": "376px",
        "height": "344px",
        "x": "76px",
        "y": "282px",
        "css": "#_109{\n\tbackground-color:#FFF1;\n\tborder:1px dashed #FFF7;\n\tposition:absolute;\n    transition: all 0.3 ease;\n    box-sizing: content-box;\n}\n\nbody.live #_109{\n    top: 0px !important;\n    left: 0px !important;\n\twidth:100% !important;\n\theight: calc(100vh - 43px) !important;\n\tborder:unset;\n}",
        "attributes": "{class:\"viewport\"}",
        "class": "viewport"
      },
      "shape": 2
    },
    {
      "id": 81,
      "type": "basic/script",
      "pos": [
        721,
        474
      ],
      "size": [
        140,
        49
      ],
      "flags": {
        "collapsed": false
      },
      "mode": 0,
      "inputs": [
        {
          "name": "dom",
          "type": 0,
          "link": 38
        },
        {
          "name": "scale",
          "type": 0,
          "link": 50
        },
        {
          "name": "THREE",
          "type": 0,
          "link": 51
        }
      ],
      "outputs": [
        {
          "name": "renderer",
          "links": null
        },
        {
          "name": "camera",
          "links": null
        },
        {
          "name": "scene",
          "links": null
        }
      ],
      "properties": {
        "onExecute": "this.scale = this.getInputDataByName(\"scale\", !this.scale)\nthis.dom   = this.getInputDataByName(\"dom\", !this.dom)\nthis.onInit = () => {\n  \tif( this.renderer ) return // dont init twice\n    var THREE = this.getInputDataByName(\"THREE\")\n    this.addInput(\"THREE\")\n    this.addInput(\"dom\")\n    this.addInput(\"scale\")\n    this.addOutput(\"renderer\")\n    this.addOutput(\"camera\")\n    this.addOutput(\"scene\")\n\n    this.camera = new THREE.PerspectiveCamera( 70, this.dom.offsetWidth / this.dom.offsetHeight, 0.01, 10 );\n\tthis.camera.position.z = 1;\n\tthis.scene = new THREE.Scene();\n\n\tthis.geometry = new THREE.BoxGeometry( 0.2, 0.2, 0.2 );\n\tthis.material = new THREE.MeshNormalMaterial();\n\n\tthis.mesh = new THREE.Mesh( this.geometry, this.material );\n\tthis.scene.add( this.mesh );\n\n\tthis.renderer = new THREE.WebGLRenderer( { antialias: true } );\n\tthis.renderer.setSize( this.dom.offsetWidth, this.dom.offsetHeight );\n  \tthis.dom.innerHTML = ''\n\tthis.dom.appendChild( this.renderer.domElement )\n    this.setOutputData(\"scene\",this.scene)\n    this.setOutputData(\"camera\",this.camera)\n    this.setOutputData(\"renderer\",this.renderer)\n    this.animate()\n}\n                         \nthis.onDomResize = () => {\n  \tthis.camera.aspect = this.dom.offsetWidth / this.dom.offsetHeight\n    this.camera.updateProjectionMatrix();\n    this.renderer.setSize( this.dom.offsetWidth, this.dom.offsetHeight )\n}\n\nthis.animate = () => {\n  \tvar domsize = this.dom.offsetHeight + this.dom.offsetWidth\n    if( graph.status == LGraph.STATUS_RUNNING )\n\t  requestAnimationFrame( this.animate )\n    if( !this.mesh ) return\n  \tthis.mesh.rotation.x += 0.01;\n\tthis.mesh.rotation.y += 0.01;\n    this.mesh.scale.x = this.scale\n    this.mesh.scale.y = this.scale\n    this.mesh.scale.z = this.scale\n    this.renderer.render( this.scene, this.camera );\n  \tif( domsize != this.domsize ) this.onDomResize()\n    this.domsize = domsize   \n}\n\nthis.onStart = this.animate"
      },
      "shape": 2
    },
    {
      "id": 130,
      "type": "package/npm",
      "pos": [
        554,
        651
      ],
      "size": {
        "0": 132,
        "1": 19
      },
      "flags": {},
      "mode": 0,
      "outputs": [
        {
          "name": " ",
          "links": [
            51
          ],
          "label": "0.101.1@npm"
        }
      ],
      "title": "three",
      "properties": {
        "packagename": "three",
        "include": false,
        "url_doc": "https///threejs.org/"
      },
      "shape": 2
    },
    {
      "id": 126,
      "type": "widget/hslider",
      "pos": [
        528,
        581
      ],
      "size": {
        "0": 131,
        "1": 19
      },
      "flags": {},
      "mode": 0,
      "outputs": [
        {
          "name": "",
          "type": "number",
          "links": [
            50
          ]
        }
      ],
      "title": "scale",
      "properties": {
        "wcolor": "#7AF",
        "min": 2,
        "max": 5,
        "value": 3.4312977099236637
      },
      "boxcolor": "rgba(122,122,122,1.0)",
      "shape": 2
    },
    {
      "id": 111,
      "type": "widget/text",
      "pos": [
        527,
        313
      ],
      "size": {
        "0": 234,
        "1": 67
      },
      "flags": {
        "collapsed": false
      },
      "mode": 0,
      "title": "info",
      "properties": {
        "value": "\\nPress play to start\\nPress live to go fullscreen\\n\\n",
        "font": "Arial",
        "fontsize": 18,
        "color": "#AAA",
        "align": "left",
        "glowSize": 0,
        "decimals": 1
      },
      "shape": 2
    }
  ],
  "links": [
    [
      1,
      5,
      0,
      6,
      0,
      0
    ],
    [
      5,
      15,
      0,
      11,
      1,
      0
    ],
    [
      7,
      21,
      0,
      11,
      2,
      0
    ],
    [
      8,
      23,
      0,
      11,
      0,
      -1
    ],
    [
      14,
      11,
      0,
      24,
      1,
      0
    ],
    [
      16,
      23,
      0,
      11,
      0,
      -1
    ],
    [
      17,
      11,
      1,
      24,
      0,
      -1
    ],
    [
      18,
      30,
      0,
      24,
      2,
      0
    ],
    [
      19,
      43,
      0,
      30,
      0,
      -1
    ],
    [
      20,
      30,
      1,
      24,
      3,
      -1
    ],
    [
      22,
      82,
      0,
      81,
      0,
      0
    ],
    [
      23,
      83,
      0,
      81,
      0,
      -1
    ],
    [
      25,
      83,
      0,
      81,
      0,
      -1
    ],
    [
      27,
      82,
      0,
      81,
      1,
      0
    ],
    [
      33,
      90,
      0,
      81,
      1,
      0
    ],
    [
      34,
      90,
      0,
      81,
      1,
      0
    ],
    [
      38,
      109,
      0,
      81,
      1,
      0
    ],
    [
      50,
      126,
      0,
      81,
      1,
      0
    ],
    [
      51,
      130,
      0,
      81,
      2,
      0
    ]
  ],
  "groups": [],
  "config": {}
}