{
  "last_node_id": 107,
  "last_link_id": 36,
  "nodes": [
    {
      "id": 81,
      "type": "basic/script",
      "pos": [
        684,
        404
      ],
      "size": [
        140,
        34
      ],
      "flags": {},
      "mode": 0,
      "inputs": [
        {
          "name": "in",
          "type": -1,
          "link": null
        },
        {
          "name": "canvas",
          "type": 0,
          "link": 35
        }
      ],
      "properties": {
        "onExecute": "this.w = 25\nthis.h = 25\nthis.addInput(\"canvas\")\nthis.onLoad = () => { require('./stdnodes.js') }\nthis.onEvent = (action, args) => { }\nthis.draw = () => {\n  var canvas = this.getInputDataByName(\"canvas\",true)\n  canvas.setAttribute(\"width\",this.w)\n  canvas.setAttribute(\"height\",this.h)\n  var w = parseInt(canvas.style.width.replace(/px/,''))\n  var h = parseInt(canvas.style.height.replace(/px/,''))\n  var ctx = canvas.getContext('2d');\n  ctx.clearRect(0, 0, w, h); // clear canvas\n  \n  var col = function(x, y, r, g, b) {\n    ctx.fillStyle = \"rgb(\" + r + \",\" + g + \",\" + b + \")\";\n    ctx.fillRect(x, y, 1,1);\n  }\n  \n  var R = (x, y, t) => Math.floor(192 + 64*Math.cos( (x*x-y*y)/300 + t )) \n  var G = (x, y, t) => Math.floor(192 + 64*Math.sin( (x*x*Math.cos(t/4)+y*y*Math.sin(t/3))/300 ) )\n  var B = (x, y, t) => Math.floor(192 + 64*Math.sin( 5*Math.sin(t/9) + ((x-100)*(x-100)+(y-100)*(y-100))/1100) )\n  \n  var t = graph.globaltime * 8 \n  for(var x=0; x<this.w;x++){\n  \tfor(y=0;y<=this.h;y++) {\n      col(x, y, R(x,y,t), G(x,y,t), B(x,y,t));\n    }\n  }\n  if( graph.status == LGraph.STATUS_RUNNING )\n    window.requestAnimationFrame(this.draw);\n}\n\nthis.onStart = this.draw\nthis.onInit = this.draw\n\n// process incoming event (optional: return promise)\nreturn this.onEvent",
        "onLoad": "() => { require('./stdnodes.js') }"
      },
      "shape": 2
    },
    {
      "id": 107,
      "type": "graphics/DOM",
      "pos": [
        484,
        542
      ],
      "size": {
        "0": 140,
        "1": 34
      },
      "flags": {},
      "mode": 0,
      "inputs": [
        {
          "name": "update",
          "type": -1,
          "link": null
        },
        {
          "name": "html",
          "type": "string",
          "link": null
        }
      ],
      "outputs": [
        {
          "name": "out",
          "type": "object",
          "links": [
            35
          ]
        }
      ],
      "properties": {
        "tag": "canvas",
        "class": "viewport",
        "width": "253px",
        "height": "234px",
        "x": "163px",
        "y": "348px",
        "css": "#_107{\n\tbackground-color:#FFF1;\n\tborder:3px dashed #FFF7;\n\tposition:absolute;\n    transition: all 0.3 ease;\n    border-sizing: content-box;\n    border-sizing: content-box;\n}\n\nbody.live #_107{\n    top: 0px !important;\n    left: 0px !important;\n\twidth:100% !important;\n\theight: calc(100vh - 43px) !important;\n\tborder:unset;\n}"
      },
      "shape": 2
    }
  ],
  "links": [
    [
      1,
      5,
      0,
      6,
      0,
      0
    ],
    [
      5,
      15,
      0,
      11,
      1,
      0
    ],
    [
      7,
      21,
      0,
      11,
      2,
      0
    ],
    [
      8,
      23,
      0,
      11,
      0,
      -1
    ],
    [
      14,
      11,
      0,
      24,
      1,
      0
    ],
    [
      16,
      23,
      0,
      11,
      0,
      -1
    ],
    [
      17,
      11,
      1,
      24,
      0,
      -1
    ],
    [
      18,
      30,
      0,
      24,
      2,
      0
    ],
    [
      19,
      43,
      0,
      30,
      0,
      -1
    ],
    [
      20,
      30,
      1,
      24,
      3,
      -1
    ],
    [
      22,
      82,
      0,
      81,
      0,
      0
    ],
    [
      23,
      83,
      0,
      81,
      0,
      -1
    ],
    [
      25,
      83,
      0,
      81,
      0,
      -1
    ],
    [
      27,
      82,
      0,
      81,
      1,
      0
    ],
    [
      33,
      90,
      0,
      81,
      1,
      0
    ],
    [
      34,
      90,
      0,
      81,
      1,
      0
    ],
    [
      35,
      107,
      0,
      81,
      1,
      0
    ]
  ],
  "groups": [],
  "config": {}
}